{
 "actions": [],
 "allow_rename": 1,
 "creation": "2022-03-15 09:47:41.862006",
 "doctype": "DocType",
 "editable_grid": 1,
 "engine": "InnoDB",
 "field_order": [
  "api_version",
  "base_url",
  "section_break_3",
  "client_id",
  "client_secret",
  "section_break_6",
  "webhook_secret"
 ],
 "fields": [
  {
   "fieldname": "client_id",
   "fieldtype": "Data",
   "in_list_view": 1,
   "label": "Client ID",
   "reqd": 1
  },
  {
   "fieldname": "client_secret",
   "fieldtype": "Password",
   "in_list_view": 1,
   "label": "Client Secret",
   "reqd": 1
  },
  {
   "fieldname": "api_version",
   "fieldtype": "Data",
   "label": "API Version",
   "reqd": 1
  },
  {
   "fieldname": "base_url",
   "fieldtype": "Data",
   "label": "Base URL",
   "reqd": 1
  },
  {
   "fieldname": "section_break_3",
   "fieldtype": "Column Break"
  },
  {
   "fieldname": "section_break_6",
   "fieldtype": "Section Break"
  },
  {
   "fieldname": "webhook_secret",
   "fieldtype": "Password",
   "label": "Webhook Secret"
  }
 ],
 "index_web_pages_for_search": 1,
 "issingle": 1,
 "links": [],
 "modified": "2023-10-20 18:07:12.388245",
 "modified_by": "Administrator",
 "module": "Bank API",
 "name": "Bridge Settings",
 "owner": "Administrator",
 "permissions": [
  {
   "create": 1,
   "delete": 1,
   "email": 1,
   "print": 1,
   "read": 1,
   "role": "System Manager",
   "select": 1,
   "share": 1,
   "write": 1
  },
  {
   "read": 1,
   "role": "Bridge User",
   "select": 1
  }
 ],
 "sort_field": "modified",
 "sort_order": "DESC",
 "states": [],
 "track_changes": 1
}