{
 "actions": [],
 "allow_rename": 1,
 "autoname": "field:email",
 "creation": "2022-03-15 10:01:43.304379",
 "doctype": "DocType",
 "editable_grid": 1,
 "engine": "InnoDB",
 "field_order": [
  "status",
  "email",
  "password",
  "uuid",
  "column_break_4",
  "site",
  "base_url",
  "webhook_url"
 ],
 "fields": [
  {
   "fieldname": "email",
   "fieldtype": "Data",
   "in_list_view": 1,
   "label": "Email",
   "options": "Email",
   "reqd": 1,
   "unique": 1
  },
  {
   "fieldname": "password",
   "fieldtype": "Password",
   "label": "Password",
   "reqd": 1
  },
  {
   "fieldname": "uuid",
   "fieldtype": "Small Text",
   "in_list_view": 1,
   "in_standard_filter": 1,
   "label": "UUID",
   "read_only": 1
  },
  {
   "fieldname": "site",
   "fieldtype": "Data",
   "in_list_view": 1,
   "in_standard_filter": 1,
   "label": "Site"
  },
  {
   "fieldname": "column_break_4",
   "fieldtype": "Column Break"
  },
  {
   "fieldname": "base_url",
   "fieldtype": "Data",
   "label": "Base URL"
  },
  {
   "default": "Active",
   "fieldname": "status",
   "fieldtype": "Select",
   "in_list_view": 1,
   "in_standard_filter": 1,
   "label": "Status",
   "options": "Active\nDeleted"
  },
  {
   "fieldname": "webhook_url",
   "fieldtype": "Small Text",
   "label": "Webhook URL"
  }
 ],
 "index_web_pages_for_search": 1,
 "links": [
  {
   "group": "Item",
   "link_doctype": "Bridge Item",
   "link_fieldname": "bridge_user"
  },
  {
   "group": "Item",
   "link_doctype": "Bridge Item Request",
   "link_fieldname": "bridge_user"
  }
 ],
 "modified": "2023-11-06 15:49:48.463102",
 "modified_by": "Administrator",
 "module": "Bank API",
 "name": "Bridge User",
 "naming_rule": "By fieldname",
 "owner": "Administrator",
 "permissions": [
  {
   "create": 1,
   "delete": 1,
   "email": 1,
   "export": 1,
   "print": 1,
   "read": 1,
   "report": 1,
   "role": "System Manager",
   "select": 1,
   "share": 1,
   "write": 1
  },
  {
   "create": 1,
   "delete": 1,
   "if_owner": 1,
   "read": 1,
   "role": "Bridge User",
   "select": 1,
   "write": 1
  }
 ],
 "sort_field": "modified",
 "sort_order": "DESC",
 "states": [],
 "track_changes": 1
}